^C:\USERS\JAVAJUMPER\SOURCE\REPOS\LAB22\TASK1\X64\DEBUG\TASK1.OBJ
C:\USERS\JAVAJUMPER\SOURCE\REPOS\LAB22\X64\DEBUG\TASK1.EXE
C:\USERS\JAVAJUMPER\SOURCE\REPOS\LAB22\TASK1\X64\DEBUG\TASK1.ILK
C:\USERS\JAVAJUMPER\SOURCE\REPOS\LAB22\X64\DEBUG\TASK1.PDB
